{
  "name": "ifishhumans",
  "records": {
    "Sep 9, 2021, 10:53:32 PM": "8155,2898,2913057400\n10175,99,138678727\n14697,99,186499360\n10012,99,138027767\n7985,99,200000000\n18845,99,140831044\n16885,99,41830465\n11482,99,200000000\n7668,99,105223867\n15501,99,45255326\n15497,99,39075372\n1348,99,200000000\n11482,99,106731130\n16945,99,43520628\n15107,99,63635418\n27912,99,51306754\n19508,120,108905245\n10004,99,90080590\n39080,99,39895843\n27786,120,111559891\n33056,120,108813139\n12654,99,38819936\n13949,99,86151490\n16188,99,39363769\n9341,99,108201192\n45541,120,105249220\n17109,99,40942772\n7094,120,200000000\n19130,120,134458455\n-1,-1\n-1,-1\n75496,1416263\n-1,-1\n-1,-1\n11012,2680\n35021,1143\n40166,1161\n72306,1088\n-1,-1\n-1,-1\n-1,-1\n-1,-1\n-1,-1\n55654,550\n-1,-1\n11810,468805\n-1,-1\n15521,3\n-1,-1\n-1,-1\n41013,87\n-1,-1\n-1,-1\n65771,11495\n-1,-1\n-1,-1\n250656,1\n127267,12\n-1,-1\n",
    "Sep 10, 2021, 11:00:13 PM": "8158,2898,2913247234\n10172,99,138779867\n14709,99,186517630\n10025,99,138027767\n7985,99,200000000\n18856,99,140883782\n16900,99,41830631\n11480,99,200000000\n7674,99,105223867\n15512,99,45255326\n15501,99,39075372\n1349,99,200000000\n11490,99,106731130\n16951,99,43520628\n15123,99,63635418\n27918,99,51306754\n19533,120,108905245\n10010,99,90080590\n39091,99,39895843\n27792,120,111577401\n33089,120,108813139\n12672,99,38819936\n13955,99,86151490\n16195,99,39363769\n9348,99,108201202\n45550,120,105249220\n17115,99,40942772\n7096,120,200000000\n19158,120,134458455\n-1,-1\n-1,-1\n75524,1416263\n-1,-1\n-1,-1\n11017,2680\n35038,1143\n40166,1161\n72336,1088\n-1,-1\n-1,-1\n-1,-1\n-1,-1\n-1,-1\n55656,550\n-1,-1\n11823,468805\n-1,-1\n15523,3\n-1,-1\n-1,-1\n41000,87\n-1,-1\n-1,-1\n64967,11565\n-1,-1\n-1,-1\n250646,1\n127309,12\n-1,-1\n",
    "Sep 11, 2021, 11:59:32 PM": "8166,2898,2913289273\n10181,99,138781434\n14733,99,186517630\n10030,99,138027767\n7982,99,200000000\n18867,99,140923550\n16906,99,41830631\n11478,99,200000000\n7682,99,105223867\n15519,99,45255326\n15501,99,39075372\n1349,99,200000000\n11498,99,106731130\n16959,99,43520628\n15131,99,63635418\n27917,99,51306754\n19571,120,108905245\n10013,99,90080590\n39092,99,39895843\n27823,120,111577401\n33129,120,108813139\n12676,99,38819936\n13960,99,86151490\n16196,99,39363769\n9350,99,108201906\n45552,120,105249220\n17129,99,40942772\n7091,120,200000000\n19180,120,134458455\n-1,-1\n-1,-1\n75548,1416263\n-1,-1\n-1,-1\n11021,2680\n35063,1143\n40184,1161\n72347,1088\n-1,-1\n-1,-1\n-1,-1\n-1,-1\n-1,-1\n55645,550\n-1,-1\n11827,468805\n-1,-1\n15522,3\n-1,-1\n-1,-1\n41005,87\n-1,-1\n-1,-1\n64997,11565\n-1,-1\n-1,-1\n250767,1\n127383,12\n-1,-1\n",
    "Sep 12, 2021, 11:00:06 PM": "8161,2898,2915526428\n10189,99,138803863\n14752,99,186556593\n10044,99,138027767\n7981,99,200000000\n18550,99,142620263\n16911,99,41832281\n11478,99,200000000\n7670,99,105238867\n15508,99,45341348\n15508,99,39075372\n1350,99,200000000\n11508,99,106731130\n16965,99,43528828\n15131,99,63635418\n27915,99,51326754\n19608,120,108905245\n10021,99,90080590\n39101,99,39895843\n27769,120,111650294\n33163,120,108813139\n12683,99,38819936\n13970,99,86151490\n16206,99,39363769\n9334,99,108238805\n45563,120,105249220\n17135,99,40942772\n7086,120,200000000\n19155,120,134696841\n-1,-1\n-1,-1\n75581,1416263\n-1,-1\n-1,-1\n11028,2680\n35079,1143\n40211,1161\n72389,1088\n-1,-1\n-1,-1\n-1,-1\n-1,-1\n-1,-1\n55647,550\n-1,-1\n11833,468805\n-1,-1\n15528,3\n-1,-1\n-1,-1\n41014,87\n-1,-1\n-1,-1\n64745,11595\n-1,-1\n-1,-1\n250905,1\n127442,12\n-1,-1\n",
    "Sep 13, 2021, 11:00:33 PM": "8151,2898,2918088898\n10197,99,138803863\n14744,99,186854255\n10027,99,138292817\n7980,99,200000000\n18481,99,143120571\n16919,99,41832971\n11477,99,200000000\n7676,99,105238875\n15390,99,45707084\n15510,99,39095372\n1352,99,200000000\n11504,99,106765867\n16969,99,43538284\n15142,99,63635418\n27934,99,51326754\n19282,120,109152906\n10033,99,90084932\n39092,99,39933427\n27769,120,111667294\n33163,120,108843482\n12690,99,38819936\n13971,99,86181490\n16197,99,39416754\n9335,99,108247262\n44920,120,105395539\n16934,99,41436904\n7086,120,200000000\n19176,120,134696841\n-1,-1\n-1,-1\n75600,1416263\n-1,-1\n-1,-1\n11027,2680\n35070,1143\n40203,1161\n72371,1088\n-1,-1\n-1,-1\n-1,-1\n-1,-1\n-1,-1\n55647,550\n-1,-1\n11835,468805\n-1,-1\n15521,3\n-1,-1\n-1,-1\n41016,87\n-1,-1\n-1,-1\n63185,11745\n-1,-1\n-1,-1\n250938,1\n127445,12\n-1,-1\n",
    "Sep 14, 2021, 11:00:19 PM": "8154,2898,2919423343\n10204,99,138803863\n14753,99,186957330\n10035,99,138292817\n7978,99,200000000\n18500,99,143120571\n16932,99,41858858\n11474,99,200000000\n7674,99,105242475\n15249,99,46202913\n15513,99,39117712\n1353,99,200000000\n11519,99,106765867\n16980,99,43538434\n15149,99,63635418\n27791,99,51688283\n19312,120,109152906\n10040,99,90110742\n39099,99,39959303\n27771,120,111693101\n33202,120,108845832\n12699,99,38845742\n13968,99,86366710\n16199,99,39442560\n9334,99,108247262\n44943,120,105395539\n16947,99,41442264\n7089,120,200000000\n19208,120,134696841\n-1,-1\n-1,-1\n75620,1416263\n-1,-1\n-1,-1\n11027,2680\n35072,1143\n40201,1161\n72376,1088\n-1,-1\n-1,-1\n-1,-1\n-1,-1\n-1,-1\n55627,550\n-1,-1\n11835,468805\n-1,-1\n15520,3\n-1,-1\n-1,-1\n41013,87\n-1,-1\n-1,-1\n61505,11910\n-1,-1\n-1,-1\n250980,1\n127494,12\n-1,-1\n",
    "Sep 15, 2021, 11:00:17 PM": "8140,2898,2921910554\n10206,99,138803863\n14761,99,186957360\n10032,99,138292817\n7976,99,200000000\n18519,99,143120571\n16932,99,41861867\n11470,99,200000000\n7671,99,105242475\n15069,99,46844182\n15512,99,39126656\n1351,99,200000000\n11510,99,106782085\n16979,99,43538934\n15146,99,63636018\n27302,99,52603338\n18968,120,109401941\n10041,99,90112636\n39098,99,39959303\n27782,120,111693101\n33225,120,108845832\n12709,99,38845742\n13969,99,86405011\n16200,99,39442560\n9331,99,108247269\n44919,120,105395539\n16712,99,42054613\n7085,120,200000000\n19228,120,134696841\n-1,-1\n-1,-1\n75573,1416263\n-1,-1\n-1,-1\n11018,2680\n35040,1143\n40164,1161\n72300,1088\n-1,-1\n-1,-1\n-1,-1\n-1,-1\n-1,-1\n55546,550\n-1,-1\n11813,468805\n-1,-1\n15493,3\n-1,-1\n-1,-1\n40964,87\n-1,-1\n-1,-1\n59990,12055\n-1,-1\n-1,-1\n250694,1\n127434,12\n-1,-1\n",
    "Sep 16, 2021, 3:00:46 PM": "8143,2898,2922517491\n10207,99,138803863\n14772,99,186957360\n10031,99,138292817\n7974,99,200000000\n18528,99,143120571\n16936,99,41861867\n11468,99,200000000\n7667,99,105242475\n15072,99,46844182\n15516,99,39126656\n1350,99,200000000\n11504,99,106782085\n16980,99,43538934\n15146,99,63636018\n27120,99,53003723\n18985,120,109401941\n10042,99,90112636\n39068,99,39959303\n27786,120,111693101\n33238,120,108845832\n12707,99,38845742\n13965,99,86405246\n16202,99,39442560\n9332,99,108247278\n44891,120,105395539\n16641,99,42260921\n7077,120,200000000\n19240,120,134696841\n-1,-1\n-1,-1\n75506,1416263\n-1,-1\n-1,-1\n10999,2680\n34982,1143\n40099,1161\n72179,1088\n-1,-1\n-1,-1\n-1,-1\n-1,-1\n-1,-1\n55463,550\n-1,-1\n11793,468805\n-1,-1\n15468,3\n-1,-1\n-1,-1\n40897,87\n-1,-1\n-1,-1\n59646,12090\n-1,-1\n-1,-1\n250215,1\n127255,12\n-1,-1\n"
  }
}