{
  "name": "ty_lurr",
  "records": {
    "Sep 9, 2021, 10:53:33 PM": "454999,1800,22485301\n767375,62,346125\n456949,82,2438022\n822378,61,313383\n552768,80,2120147\n629188,65,452207\n483166,69,688902\n430958,85,3596335\n464981,74,1167471\n735860,64,416720\n704458,52,129846\n404627,77,1570017\n747966,56,187227\n557331,64,433955\n646982,60,295379\n559593,69,668600\n431090,67,553379\n396113,71,817791\n389692,66,546788\n410747,74,1142928\n368127,65,488581\n301242,73,1081795\n502989,56,184424\n450455,64,428472\n516435,51,116364\n462671,64,427678\n362202,78,1769887\n-1,0,-1\n266428,50,102878\n-1,-1\n-1,-1\n-1,-1\n-1,-1\n-1,-1\n-1,-1\n-1,-1\n-1,-1\n-1,-1\n-1,-1\n-1,-1\n-1,-1\n-1,-1\n-1,-1\n-1,-1\n-1,-1\n-1,-1\n-1,-1\n-1,-1\n-1,-1\n-1,-1\n2022,155\n-1,-1\n-1,-1\n322583,3110\n109181,6\n123932,3\n-1,-1\n-1,-1\n-1,-1\n",
    "Sep 10, 2021, 11:00:14 PM": "454209,1802,22806130\n767555,62,346125\n456869,82,2438022\n822413,61,313383\n552644,80,2120147\n629129,65,452207\n483151,69,688902\n430906,85,3596335\n434045,76,1459457\n735821,64,416720\n704375,52,129846\n402043,77,1598635\n747836,56,187227\n557235,64,433955\n646822,60,295379\n559521,69,668600\n431030,67,553379\n396095,71,817791\n389738,66,546788\n410683,74,1142928\n368132,65,488581\n301280,73,1081795\n502776,56,184649\n450383,64,428472\n516331,51,116364\n462521,64,427678\n362159,78,1769887\n-1,0,-1\n266475,50,102878\n-1,-1\n-1,-1\n-1,-1\n-1,-1\n-1,-1\n-1,-1\n-1,-1\n-1,-1\n-1,-1\n-1,-1\n-1,-1\n-1,-1\n-1,-1\n-1,-1\n-1,-1\n-1,-1\n-1,-1\n-1,-1\n-1,-1\n-1,-1\n-1,-1\n2025,155\n-1,-1\n-1,-1\n322577,3110\n109162,6\n123899,3\n-1,-1\n-1,-1\n-1,-1\n",
    "Sep 11, 2021, 11:59:40 PM": "453176,1805,23467865\n767633,62,346127\n451802,82,2539667\n822477,61,313385\n548275,80,2187233\n629396,65,452210\n483371,69,688911\n427519,86,3700158\n412152,78,1792747\n736138,64,416722\n704649,52,129846\n402168,77,1598637\n748057,56,187347\n554787,64,444284\n646974,60,295381\n558249,69,675809\n427790,67,590683\n396170,71,817791\n389921,66,546788\n410814,74,1142928\n368163,65,489260\n301387,73,1081797\n502911,56,184651\n450485,64,428472\n516517,51,116365\n462637,64,427678\n362229,78,1770110\n-1,0,-1\n266621,50,102878\n-1,-1\n-1,-1\n-1,-1\n-1,-1\n-1,-1\n-1,-1\n-1,-1\n-1,-1\n-1,-1\n-1,-1\n-1,-1\n-1,-1\n-1,-1\n-1,-1\n-1,-1\n-1,-1\n-1,-1\n-1,-1\n-1,-1\n-1,-1\n-1,-1\n2026,155\n-1,-1\n-1,-1\n322705,3110\n109254,6\n123971,3\n-1,-1\n-1,-1\n-1,-1\n",
    "Sep 12, 2021, 11:00:08 PM": "451568,1810,24145966\n768034,62,346130\n449069,82,2623676\n822842,61,313388\n544922,81,2242679\n629848,65,452212\n483718,69,688920\n425271,86,3785884\n381666,81,2198143\n736744,64,416724\n705201,52,129846\n402381,77,1598639\n748546,56,187467\n555072,64,444569\n647405,60,295383\n558488,69,675811\n426295,68,612962\n396368,71,817791\n390153,66,546788\n411044,74,1142928\n368381,65,489262\n301518,73,1081799\n502631,56,185773\n450698,64,428472\n516851,51,116365\n462848,64,427678\n362181,78,1793799\n-1,0,-1\n266775,50,102878\n-1,-1\n-1,-1\n-1,-1\n-1,-1\n-1,-1\n-1,-1\n-1,-1\n-1,-1\n-1,-1\n-1,-1\n-1,-1\n-1,-1\n-1,-1\n-1,-1\n-1,-1\n-1,-1\n-1,-1\n-1,-1\n-1,-1\n-1,-1\n-1,-1\n2025,155\n-1,-1\n-1,-1\n322441,3115\n109326,6\n124048,3\n-1,-1\n-1,-1\n-1,-1\n",
    "Sep 13, 2021, 11:00:34 PM": "445342,1827,25829261\n619129,73,997695\n440522,83,2875189\n810042,62,334502\n521995,82,2630387\n629994,65,452217\n483838,69,688947\n418738,87,4039343\n381720,81,2198147\n736963,64,416728\n705454,52,129846\n402466,77,1598643\n748516,56,187707\n555113,64,445129\n647513,60,295387\n558686,69,675815\n423297,68,658009\n396442,71,817791\n390275,66,546788\n411106,74,1142928\n364800,66,509650\n297834,74,1133205\n502769,56,185777\n450748,64,428472\n516908,51,116600\n462891,64,427678\n362259,78,1793803\n-1,0,-1\n266965,50,102878\n-1,-1\n-1,-1\n-1,-1\n-1,-1\n-1,-1\n-1,-1\n-1,-1\n-1,-1\n-1,-1\n-1,-1\n-1,-1\n-1,-1\n-1,-1\n-1,-1\n-1,-1\n-1,-1\n-1,-1\n-1,-1\n-1,-1\n-1,-1\n-1,-1\n2023,155\n-1,-1\n-1,-1\n322032,3120\n109354,6\n124068,3\n-1,-1\n-1,-1\n-1,-1\n",
    "Sep 14, 2021, 11:00:21 PM": "442468,1835,26366394\n600138,75,1211041\n440486,83,2879335\n794538,62,361132\n517351,83,2720755\n622783,65,482254\n483974,69,689094\n418811,87,4039652\n381776,81,2198147\n728456,64,438853\n705537,52,129974\n402547,77,1598643\n737223,57,204175\n555277,64,445169\n647694,60,295387\n558826,69,675815\n422290,69,674626\n385576,71,895098\n390333,66,546788\n411196,74,1142928\n364908,66,509650\n297939,74,1133205\n494841,57,204290\n450809,64,428472\n505031,53,137552\n462995,64,427678\n362391,78,1793803\n-1,0,-1\n267188,50,102878\n-1,-1\n-1,-1\n-1,-1\n-1,-1\n-1,-1\n-1,-1\n-1,-1\n-1,-1\n-1,-1\n-1,-1\n-1,-1\n-1,-1\n-1,-1\n-1,-1\n-1,-1\n-1,-1\n-1,-1\n-1,-1\n-1,-1\n-1,-1\n-1,-1\n2026,155\n-1,-1\n-1,-1\n319478,3150\n109423,6\n124112,3\n-1,-1\n-1,-1\n-1,-1\n",
    "Sep 15, 2021, 11:00:19 PM": "438930,1843,26834505\n599365,75,1211043\n439946,83,2879346\n793797,62,361137\n513980,83,2771483\n596803,68,653363\n483400,69,689103\n418230,87,4043448\n381381,81,2198149\n726085,64,442923\n704697,52,129974\n392064,78,1716360\n735004,57,205945\n550024,65,461160\n644991,60,298969\n555802,69,688542\n420659,69,693538\n381923,72,921153\n388172,67,551112\n410730,74,1142928\n363399,66,516220\n297304,74,1138635\n492431,57,208458\n450235,64,428472\n504410,53,137552\n462352,64,428109\n362043,78,1793805\n-1,0,-1\n258508,51,123578\n-1,-1\n-1,-1\n-1,-1\n-1,-1\n-1,-1\n-1,-1\n-1,-1\n-1,-1\n-1,-1\n-1,-1\n-1,-1\n-1,-1\n-1,-1\n-1,-1\n-1,-1\n-1,-1\n-1,-1\n-1,-1\n-1,-1\n-1,-1\n-1,-1\n2023,155\n-1,-1\n-1,-1\n317405,3170\n109414,6\n124028,3\n-1,-1\n-1,-1\n-1,-1\n",
    "Sep 16, 2021, 3:00:48 PM": "438118,1843,26882748\n598067,75,1211045\n439056,83,2879352\n791721,62,361138\n512942,83,2771489\n595611,68,653367\n482477,69,689112\n417439,87,4043453\n380687,81,2198151\n724520,64,442925\n703160,52,129974\n391361,78,1716362\n733257,57,206065\n544376,65,479299\n643556,60,298971\n554456,69,689380\n419660,69,696935\n378567,72,946853\n387473,67,551112\n409937,74,1142928\n362773,66,516222\n296821,74,1138637\n491499,57,208460\n449351,64,428472\n503423,53,137552\n461457,64,428109\n361408,78,1793807\n-1,0,-1\n258285,51,123578\n-1,-1\n-1,-1\n-1,-1\n-1,-1\n-1,-1\n-1,-1\n-1,-1\n-1,-1\n-1,-1\n-1,-1\n-1,-1\n-1,-1\n-1,-1\n-1,-1\n-1,-1\n-1,-1\n-1,-1\n-1,-1\n-1,-1\n-1,-1\n-1,-1\n2021,155\n-1,-1\n-1,-1\n316839,3170\n109310,6\n123856,3\n-1,-1\n-1,-1\n-1,-1\n"
  }
}